{
  "dashboard": {
    "id": null,
    "uid": null,
    "title": "dev art",
    "tags": [ "templated" ],
    "timezone": "browser",
    "schemaVersion": 16,
    "version": 0
  },
  "folderId": 0,
  "overwrite": true
}
